<svg width="20" height="21" viewBox="0 0 20 21" fill="none" xmlns="http://www.w3.org/2000/svg">
<path d="M3.50838 4.15598L3.57755 4.07765C3.72104 3.93417 3.91196 3.84798 4.11448 3.83524C4.317 3.82251 4.51721 3.88411 4.67755 4.00848L4.75588 4.07765L10 9.32098L15.2442 4.07765C15.3211 3.99806 15.413 3.93457 15.5147 3.8909C15.6164 3.84722 15.7257 3.82424 15.8364 3.82327C15.947 3.82231 16.0568 3.8434 16.1592 3.8853C16.2616 3.9272 16.3546 3.98908 16.4329 4.06732C16.5111 4.14556 16.573 4.23861 16.6149 4.34102C16.6568 4.44343 16.6779 4.55317 16.6769 4.66382C16.676 4.77447 16.653 4.88382 16.6093 4.98549C16.5656 5.08716 16.5021 5.17911 16.4225 5.25598L11.1792 10.5001L16.4225 15.7443C16.566 15.8878 16.6522 16.0787 16.665 16.2812C16.6777 16.4838 16.6161 16.684 16.4917 16.8443L16.4225 16.9226C16.2791 17.0661 16.0881 17.1523 15.8856 17.1651C15.6831 17.1778 15.4829 17.1162 15.3225 16.9918L15.2442 16.9226L10 11.6793L4.75588 16.9226C4.59871 17.0744 4.38821 17.1584 4.16971 17.1565C3.95122 17.1546 3.74221 17.067 3.5877 16.9125C3.43319 16.758 3.34555 16.549 3.34365 16.3305C3.34175 16.112 3.42575 15.9015 3.57755 15.7443L8.82088 10.5001L3.57755 5.25598C3.43407 5.11249 3.34787 4.92157 3.33514 4.71905C3.32241 4.51653 3.384 4.31632 3.50838 4.15598Z" fill="#171717"/>
</svg>
